^C:\USERS\C3PO\DROPBOX\TECHNIKUM_WIEN\SEMESTER_1\EZG\EZG_PROJ5_GESAMT\EZG_PROJ5_GESAMT\DEBUG\ARB_MULTITEXTURE_EXTENSION.OBJ|C:\USERS\C3PO\DROPBOX\TECHNIKUM_WIEN\SEMESTER_1\EZG\EZG_PROJ5_GESAMT\EZG_PROJ5_GESAMT\DEBUG\ARB_TEXTURE_CUBE_MAP_EXTENSION.OBJ|C:\USERS\C3PO\DROPBOX\TECHNIKUM_WIEN\SEMESTER_1\EZG\EZG_PROJ5_GESAMT\EZG_PROJ5_GESAMT\DEBUG\ARB_TEXTURE_ENV_COMBINE_EXTENSION.OBJ|C:\USERS\C3PO\DROPBOX\TECHNIKUM_WIEN\SEMESTER_1\EZG\EZG_PROJ5_GESAMT\EZG_PROJ5_GESAMT\DEBUG\ARB_TEXTURE_ENV_DOT3_EXTENSION.OBJ|C:\USERS\C3PO\DROPBOX\TECHNIKUM_WIEN\SEMESTER_1\EZG\EZG_PROJ5_GESAMT\EZG_PROJ5_GESAMT\DEBUG\CAMERA.OBJ|C:\USERS\C3PO\DROPBOX\TECHNIKUM_WIEN\SEMESTER_1\EZG\EZG_PROJ5_GESAMT\EZG_PROJ5_GESAMT\DEBUG\CUBE.OBJ|C:\USERS\C3PO\DROPBOX\TECHNIKUM_WIEN\SEMESTER_1\EZG\EZG_PROJ5_GESAMT\EZG_PROJ5_GESAMT\DEBUG\GLUT_HANDLING.OBJ|C:\USERS\C3PO\DROPBOX\TECHNIKUM_WIEN\SEMESTER_1\EZG\EZG_PROJ5_GESAMT\EZG_PROJ5_GESAMT\DEBUG\GRAPHIC.OBJ|C:\USERS\C3PO\DROPBOX\TECHNIKUM_WIEN\SEMESTER_1\EZG\EZG_PROJ5_GESAMT\EZG_PROJ5_GESAMT\DEBUG\IMAGE.OBJ|C:\USERS\C3PO\DROPBOX\TECHNIKUM_WIEN\SEMESTER_1\EZG\EZG_PROJ5_GESAMT\EZG_PROJ5_GESAMT\DEBUG\KD_LEAF.OBJ|C:\USERS\C3PO\DROPBOX\TECHNIKUM_WIEN\SEMESTER_1\EZG\EZG_PROJ5_GESAMT\EZG_PROJ5_GESAMT\DEBUG\KD_NODE.OBJ|C:\USERS\C3PO\DROPBOX\TECHNIKUM_WIEN\SEMESTER_1\EZG\EZG_PROJ5_GESAMT\EZG_PROJ5_GESAMT\DEBUG\MAIN.OBJ|C:\USERS\C3PO\DROPBOX\TECHNIKUM_WIEN\SEMESTER_1\EZG\EZG_PROJ5_GESAMT\EZG_PROJ5_GESAMT\DEBUG\NORMALISATION_CUBE_MAP.OBJ|C:\USERS\C3PO\DROPBOX\TECHNIKUM_WIEN\SEMESTER_1\EZG\EZG_PROJ5_GESAMT\EZG_PROJ5_GESAMT\DEBUG\POINT.OBJ|C:\USERS\C3PO\DROPBOX\TECHNIKUM_WIEN\SEMESTER_1\EZG\EZG_PROJ5_GESAMT\EZG_PROJ5_GESAMT\DEBUG\TORUS.OBJ|C:\USERS\C3PO\DROPBOX\TECHNIKUM_WIEN\SEMESTER_1\EZG\EZG_PROJ5_GESAMT\EZG_PROJ5_GESAMT\DEBUG\TRIANGLE.OBJ|C:\USERS\C3PO\DROPBOX\TECHNIKUM_WIEN\SEMESTER_1\EZG\EZG_PROJ5_GESAMT\EZG_PROJ5_GESAMT\DEBUG\VECTOR.OBJ
C:\PROGRAM FILES (X86)\WINDOWS KITS\8.0\LIB\WIN8\UM\X86\KERNEL32.LIB
C:\PROGRAM FILES (X86)\WINDOWS KITS\8.0\LIB\WIN8\UM\X86\USER32.LIB
C:\PROGRAM FILES (X86)\WINDOWS KITS\8.0\LIB\WIN8\UM\X86\GDI32.LIB
C:\PROGRAM FILES (X86)\WINDOWS KITS\8.0\LIB\WIN8\UM\X86\WINSPOOL.LIB
C:\PROGRAM FILES (X86)\WINDOWS KITS\8.0\LIB\WIN8\UM\X86\COMDLG32.LIB
C:\PROGRAM FILES (X86)\WINDOWS KITS\8.0\LIB\WIN8\UM\X86\ADVAPI32.LIB
C:\PROGRAM FILES (X86)\WINDOWS KITS\8.0\LIB\WIN8\UM\X86\SHELL32.LIB
C:\PROGRAM FILES (X86)\WINDOWS KITS\8.0\LIB\WIN8\UM\X86\OLE32.LIB
C:\PROGRAM FILES (X86)\WINDOWS KITS\8.0\LIB\WIN8\UM\X86\OLEAUT32.LIB
C:\PROGRAM FILES (X86)\WINDOWS KITS\8.0\LIB\WIN8\UM\X86\UUID.LIB
C:\PROGRAM FILES (X86)\WINDOWS KITS\8.0\LIB\WIN8\UM\X86\ODBC32.LIB
C:\PROGRAM FILES (X86)\WINDOWS KITS\8.0\LIB\WIN8\UM\X86\ODBCCP32.LIB
C:\USERS\C3PO\DROPBOX\TECHNIKUM_WIEN\SEMESTER_1\EZG\EZG_PROJ5_GESAMT\EZG_PROJ5_GESAMT\DEBUG\CAMERA.OBJ
C:\USERS\C3PO\DROPBOX\TECHNIKUM_WIEN\SEMESTER_1\EZG\EZG_PROJ5_GESAMT\EZG_PROJ5_GESAMT\DEBUG\CUBE.OBJ
C:\USERS\C3PO\DROPBOX\TECHNIKUM_WIEN\SEMESTER_1\EZG\EZG_PROJ5_GESAMT\EZG_PROJ5_GESAMT\DEBUG\ARB_MULTITEXTURE_EXTENSION.OBJ
C:\USERS\C3PO\DROPBOX\TECHNIKUM_WIEN\SEMESTER_1\EZG\EZG_PROJ5_GESAMT\EZG_PROJ5_GESAMT\DEBUG\ARB_TEXTURE_CUBE_MAP_EXTENSION.OBJ
C:\USERS\C3PO\DROPBOX\TECHNIKUM_WIEN\SEMESTER_1\EZG\EZG_PROJ5_GESAMT\EZG_PROJ5_GESAMT\DEBUG\ARB_TEXTURE_ENV_COMBINE_EXTENSION.OBJ
C:\USERS\C3PO\DROPBOX\TECHNIKUM_WIEN\SEMESTER_1\EZG\EZG_PROJ5_GESAMT\EZG_PROJ5_GESAMT\DEBUG\ARB_TEXTURE_ENV_DOT3_EXTENSION.OBJ
C:\USERS\C3PO\DROPBOX\TECHNIKUM_WIEN\SEMESTER_1\EZG\EZG_PROJ5_GESAMT\EZG_PROJ5_GESAMT\DEBUG\GLUT_HANDLING.OBJ
C:\USERS\C3PO\DROPBOX\TECHNIKUM_WIEN\SEMESTER_1\EZG\EZG_PROJ5_GESAMT\EZG_PROJ5_GESAMT\DEBUG\GRAPHIC.OBJ
C:\USERS\C3PO\DROPBOX\TECHNIKUM_WIEN\SEMESTER_1\EZG\EZG_PROJ5_GESAMT\EZG_PROJ5_GESAMT\DEBUG\IMAGE.OBJ
C:\USERS\C3PO\DROPBOX\TECHNIKUM_WIEN\SEMESTER_1\EZG\EZG_PROJ5_GESAMT\EZG_PROJ5_GESAMT\DEBUG\KD_LEAF.OBJ
C:\USERS\C3PO\DROPBOX\TECHNIKUM_WIEN\SEMESTER_1\EZG\EZG_PROJ5_GESAMT\EZG_PROJ5_GESAMT\DEBUG\KD_NODE.OBJ
C:\USERS\C3PO\DROPBOX\TECHNIKUM_WIEN\SEMESTER_1\EZG\EZG_PROJ5_GESAMT\EZG_PROJ5_GESAMT\DEBUG\MAIN.OBJ
C:\USERS\C3PO\DROPBOX\TECHNIKUM_WIEN\SEMESTER_1\EZG\EZG_PROJ5_GESAMT\EZG_PROJ5_GESAMT\DEBUG\NORMALISATION_CUBE_MAP.OBJ
C:\USERS\C3PO\DROPBOX\TECHNIKUM_WIEN\SEMESTER_1\EZG\EZG_PROJ5_GESAMT\EZG_PROJ5_GESAMT\DEBUG\POINT.OBJ
C:\USERS\C3PO\DROPBOX\TECHNIKUM_WIEN\SEMESTER_1\EZG\EZG_PROJ5_GESAMT\EZG_PROJ5_GESAMT\DEBUG\TORUS.OBJ
C:\USERS\C3PO\DROPBOX\TECHNIKUM_WIEN\SEMESTER_1\EZG\EZG_PROJ5_GESAMT\EZG_PROJ5_GESAMT\DEBUG\TRIANGLE.OBJ
C:\USERS\C3PO\DROPBOX\TECHNIKUM_WIEN\SEMESTER_1\EZG\EZG_PROJ5_GESAMT\EZG_PROJ5_GESAMT\DEBUG\VECTOR.OBJ
C:\WINDOWS\SYSTEM32\TZRES.DLL
C:\WINDOWS\GLOBALIZATION\SORTING\SORTDEFAULT.NLS
C:\PROGRAM FILES (X86)\MICROSOFT VISUAL STUDIO 11.0\VC\LIB\MSVCPRTD.LIB
C:\PROGRAM FILES (X86)\MICROSOFT VISUAL STUDIO 11.0\VC\LIB\MSVCRTD.LIB
C:\PROGRAM FILES (X86)\MICROSOFT VISUAL STUDIO 11.0\VC\LIB\OLDNAMES.LIB
C:\DEV\FREEGLUT\LIB\FREEGLUT.LIB
C:\PROGRAM FILES (X86)\WINDOWS KITS\8.0\LIB\WIN8\UM\X86\GLU32.LIB
C:\PROGRAM FILES (X86)\WINDOWS KITS\8.0\LIB\WIN8\UM\X86\OPENGL32.LIB
C:\PROGRAM FILES (X86)\WINDOWS KITS\8.0\LIB\WIN8\UM\X86\WINMM.LIB
